{    
    "place_api": "https://maps.googleapis.com/maps/api/place/findplacefromtext",
    "db":{
        "mysql":{
            "url":"root:root@tcp(127.0.0.1:3306)",
            "database":"mydb",
            "table":{
                "chat_history":"chat_history",
                "meal":"meal"
            }
        }
    }
}